Project/MAC_Module_Only/MAC_Module_Only.sim/sim_1/behav/xsim/simulate.log
Vivado Simulator 2018.2
Time resolution is 1 ps
   1    2    3    4    5
   6    7    8    9   10
  11   12   13   14   15
  16   17   18   19   20
  21  22  23  24  25
  26   27   28   29   30
  31   32   33   34   35
  36   37   38   39   40
  41   42   43   44   45
  46  47  48  49  50
         0          0          0          0          0
         0          0          0          0          0
         0          0          0          0          0
         0          0          0          0          0
         0         0         0         0         0
   1    2    3    4    5
   6    7    8    9   10
  11   12   13   14   15
  16   17   18   19   20
  21  22  23  24  25
  26   27   28   29   30
  31   32   33   34   35
  36   37   38   39   40
  41   42   43   44   45
  46  47  48  49  50
         0          0          0          0          0
         0          0          0          0          0
         0          0          0          0          0
         0          0          0          0          0
         0         0         0         0         0
   1    2    3    4    5
   6    7    8    9   10
  11   12   13   14   15
  16   17   18   19   20
  21  22  23  24  25
  26   27   28   29   30
  31   32   33   34   35
  36   37   38   39   40
  41   42   43   44   45
  46  47  48  49  50
         0          0          0          0          0
         0          0          0          0          0
         0          0          0          0          0
         0          0          0          0          0
         0         0         0         0         0
   1    2    3    4    5
   6    7    8    9   10
  11   12   13   14   15
  16   17   18   19   20
  21  22  23  24  25
  26   27   28   29   30
  31   32   33   34   35
  36   37   38   39   40
  41   42   43   44   45
  46  47  48  49  50
         0          0          0          0          0
         0          0          0          0          0
         0          0          0          0          0
         0          0          0          0          0
         0         0         0         0         0
   1    2    3    4    5
   6    7    8    9   10
  11   12   13   14   15
  16   17   18   19   20
  21  22  23  24  25
  26   27   28   29   30
  31   32   33   34   35
  36   37   38   39   40
  41   42   43   44   45
  46  47  48  49  50
         0          0          0          0          0
         0          0          0          0          0
         0          0          0          0          0
         0          0          0          0          0
         0         0         0         0         0
   1    2    3    4    5
   6    7    8    9   10
  11   12   13   14   15
  16   17   18   19   20
  21  22  23  24  25
  26   27   28   29   30
  31   32   33   34   35
  36   37   38   39   40
  41   42   43   44   45
  46  47  48  49  50
         0          0          0          0          0
         0          0          0          0          0
         0          0          0          0          0
         0          0          0          0          0
         0         0         0         0         0
   1    2    3    4    5
   6    7    8    9   10
  11   12   13   14   15
  16   17   18   19   20
  21  22  23  24  25
  26   27   28   29   30
  31   32   33   34   35
  36   37   38   39   40
  41   42   43   44   45
  46  47  48  49  50
         0          0          0          0          0
         0          0          0          0          0
         0          0          0          0          0
         0          0          0          0          0
         0         0         0         0         0
   1    2    3    4    5
   6    7    8    9   10
  11   12   13   14   15
  16   17   18   19   20
  21  22  23  24  25
  26   27   28   29   30
  31   32   33   34   35
  36   37   38   39   40
  41   42   43   44   45
  46  47  48  49  50
        25         25         25         25         25
        25         25         25         25         25
        25         25         25         25         25
        25         25         25         25         25
        25        25        25        25        25
   1    2    3    4    5
   6    7    8    9   10
  11   12   13   14   15
  16   17   18   19   20
  21  22  23  24  25
  26   27   28   29   30
  31   32   33   34   35
  36   37   38   39   40
  41   42   43   44   45
  46  47  48  49  50
         0          0          0          0          0
         0          0          0          0          0
         0          0          0          0          0
         0          0          0          0          0
         0         0         0         0         0
   1    2    3    4    5
   6    7    8    9   10
  11   12   13   14   15
  16   17   18   19   20
  21  22  23  24  25
  26   27   28   29   30
  31   32   33   34   35
  36   37   38   39   40
  41   42   43   44   45
  46  47  48  49  50
         0          0          0          0          0
         0          0          0          0          0
         0          0          0          0          0
         0          0          0          0          0
         0         0         0         0         0
   1    2    3    4    5
   6    7    8    9   10
  11   12   13   14   15
  16   17   18   19   20
  21  22  23  24  25
  26   27   28   29   30
  31   32   33   34   35
  36   37   38   39   40
  41   42   43   44   45
  46  47  48  49  50
         0          0          0          0          0
         0          0          0          0          0
         0          0          0          0          0
         0          0          0          0          0
         0         0         0         0         0
$finish called at time : 250 ns : File "D:/UNI/FYP/FYP--Risc-V-32-bit-Matrix-Mac/Project/Pipline_Five_v_3.0/MAC_Module_Only/MAC_Module_Only.srcs/sim_1/new/MAC_TB.v" Line 151
